[comment encoding = UTF-8 /]
[module statistics('http://cityzone/1.0')]


[template public statistics(city : City) { numPostRel: Real= 0; numPostTot: Real; quadraAperta: String= '['; quadraChiusa: String= ']';  }]
[comment @main/]

	[file (city.name+'.html', false, 'UTF-8')]
		<html>
			<head>
				<title>
					[city.name/]
				</title>
				<script type="text/javascript" src="js/grafo.js"></script>
				<script type="text/javascript">
				var nodi=new Array(); //inizializzo l'array che conterr i nodi del grafo
				var context;
				function load()
				{
					var contatore=0;
					var canvas=document.getElementById("canvas");
					context=canvas.getContext("2d");
					disegnaNodo(0,0,"[city.name/]", "Num Post: [city.composedBy.postCounter->sum()/]");
					nodi[quadraAperta/]0[quadraChiusa/].setCentre(500,300);
					nodi[quadraAperta/]0[quadraChiusa/].setIndexLista(-1);

					document.getElementById("0").setAttribute("style", "width: 60px; height: 25px;background-color:cyan; position: absolute; left: 488px; top: 288px;");
					[for(zone : Zone | city.composedBy)]
						contatore++;
						var numZona= disegnaNodo(contatore,contatore,"quartiere [zone.id/]","Perc: "+Math.round(10000*[zone.postCounter/city.composedBy.postCounter->sum()/])/100+"% <br/> Num Post: [zone.postCounter/]");
						nodi[quadraAperta/]0[quadraChiusa/].addFriend(numZona);
						nodi[quadraAperta/]numZona[quadraChiusa/].addFriend(0);
						[if (zone.postCounter>0)]
						[for(hashtag : Hashtag | zone.hashtags)]
						//CICLO HASHTASGS
							contatore++;
							var numHashtag = disegnaNodo(contatore,contatore,"hashtag [hashtag.name/]","perc: "+Math.round(10000*[hashtag.counter/zone.postCounter/])/100+"%",nodi[quadraAperta/]numZona[quadraChiusa/]);
							nodi[quadraAperta/]numZona[quadraChiusa/].addFriend(numHashtag);
							nodi[quadraAperta/]numHashtag[quadraChiusa/].addFriend(numZona);
						[/for]
						[for(category : PostCategory | zone.categories)]
						//CICLO CATEGORY
							contatore++;
							var numCategory = disegnaNodo(contatore,contatore,"category [category.name/]","perc: "+Math.round(10000*[category.counter/zone.postCounter/])/100+"%",nodi[quadraAperta/]numZona[quadraChiusa/]);
							nodi[quadraAperta/]numZona[quadraChiusa/].addFriend(numCategory);
							nodi[quadraAperta/]numCategory[quadraChiusa/].addFriend(numZona);
						[/for]
						
						[for(ageRange : AgeRange | zone.ageRanges)]
						//CICLO AGE RANGE
							contatore++;
							var numAgeRange = disegnaNodo(contatore,contatore,"AR [ageRange.name/]","perc: "+Math.round(10000*[ageRange.postCounter/zone.postCounter/])/100+"%",nodi[quadraAperta/]numZona[quadraChiusa/]);
							nodi[quadraAperta/]numZona[quadraChiusa/].addFriend(numAgeRange);
							nodi[quadraAperta/]numAgeRange[quadraChiusa/].addFriend(numZona);
						[/for]
						[for(hourRange : HourRange | zone.hourRanges)]
						//CICLO HOUR RANGE
							contatore++;
							var numHourRange = disegnaNodo(contatore,contatore,"HR [hourRange.name/]","perc: "+Math.round(10000*[hourRange.postCounter/zone.postCounter/])/100+"%",nodi[quadraAperta/]numZona[quadraChiusa/]);
							nodi[quadraAperta/]numZona[quadraChiusa/].addFriend(numHourRange);
							nodi[quadraAperta/]numHourRange[quadraChiusa/].addFriend(numZona);
						[/for]
						[/if]
					[/for]
				nodi[quadraAperta/]0[quadraChiusa/].highLightsNode(context);
				}
				</script>
			</head>
			<body onLoad="load()">
				<!-- <p>City: [city.name/]</p>
					
					[for(zone : Zone | city.composedBy)]
					<ul>
						<li>Zone : [city.composedBy.id/]</li>
						<li>Percentage of posts in this Zone : [zone.postCounter/city.composedBy.postCounter->sum()/]</li>
						
					</ul>
					
					[/for] -->
				<!-- start with the graph part -->
				
				<canvas id="canvas"top="60" width="1000" height="800"></canvas>
				<div id="grafo"></div>
				
				
			</body>
		</html>
	[/file]

[/template]
